Week 6 Discussion
…
Forecast

The models were trained on data prior to 2022-07-01. The forecast period is the interval 2022-07-01 UTC–2023-06-01 UTC.

Huge tip if your forecast() function takes a long time to generate: include the times parameter and set it to a lower value. Since there’s randomness involved, it’ll add more volatility to the forecast but at least a happy-medium can be found. Source

Code

  (fx <- fit %>% 
        forecast(
          test,
          times = 100
        ))

# A fable: 36 x 10 [1M]
# Key:     .model [3]
   .model     date            unemploy .mean sentiment covid covid_lag1
   <chr>     <mth>              <dist> <dbl>     <dbl> <dbl>      <dbl>
 1 arima  2022 Jul t(N(0.78, 0.00014))  3.86      51.5     0          0
 2 arima  2022 Aug t(N(0.78, 0.00035))  3.82      58.2     0          0
 3 arima  2022 Sep t(N(0.75, 0.00071))  3.53      58.6     0          0
 4 arima  2022 Oct  t(N(0.74, 0.0011))  3.41      59.9     0          0
 5 arima  2022 Nov  t(N(0.72, 0.0014))  3.21      56.8     0          0
 6 arima  2022 Dec  t(N(0.71, 0.0018))  3.11      59.7     0          0
 7 arima  2023 Jan  t(N(0.74, 0.0022))  3.49      64.9     0          0
 8 arima  2023 Feb  t(N(0.73, 0.0025))  3.35      67       0          0
 9 arima  2023 Mar  t(N(0.71, 0.0029))  3.21      62       0          0
10 arima  2023 Apr  t(N(0.68, 0.0032))  2.92      63.5     0          0
# ℹ 26 more rows
# ℹ 3 more variables: covid_lag2 <dbl>, covid_lag3 <dbl>, sentiment_lag12 <dbl>
…
